<?xml version="1.0" encoding="UTF-8"?>
<svg width="59px" height="84px" viewBox="0 0 59 84" version="1.1" xmlns="http://www.w3.org/2000/svg" xmlns:xlink="http://www.w3.org/1999/xlink">
    <defs>
        <polygon id="path-1" points="57.0321649 41.7464393 57.0321649 0.218326142 0.235938785 0.218326142 0.235938785 83.2745526 57.0321649 83.2745526 57.0321649 41.7464393"></polygon>
        <polygon id="path-3" points="0 0.273511742 0 66.4979576 50.1945567 66.4979576 50.1945567 0.273511742"></polygon>
    </defs>
    <g id="Pages" stroke="none" stroke-width="1" fill="none" fill-rule="evenodd">
        <g id="01-LandingCarsuelAbout" transform="translate(-1027.000000, -4802.000000)">
            <g id="UPlogo" transform="translate(1027.000000, 4802.000000)">
                <g id="Group-3" transform="translate(1.237113, 0.213148)">
                    <mask id="mask-2" fill="white">
                        <use xlink:href="#path-1"></use>
                    </mask>
                    <g id="Clip-2"></g>
                    <path d="M33.1105155,36.6140275 C33.1105155,34.1572112 31.6428866,31.851411 29.3402062,30.6441451 C28.2779381,30.0832282 27.1595876,29.7531501 25.5435052,29.5831491 L25.5435052,32.2720987 C27.2602062,33.0798192 28.2610309,34.7586868 28.2610309,36.8401202 C28.2610309,38.9275943 27.2639175,40.5551164 25.5435052,41.5030661 C24.545567,42.056648 23.3002062,42.3742133 21.8663918,42.4208126 L21.5006186,42.4333253 L16.7385567,42.4290106 L16.7385567,31.6205721 L21.5991753,31.6257498 L21.8663918,31.6343793 L21.8663918,29.432133 L9.49030928,29.4299756 C8.60618557,29.4299756 8.21608247,29.6172356 8.21608247,30.0720098 C8.21608247,30.4111488 8.51092784,30.6760742 8.95134021,30.7886891 L11.1076289,31.2447577 C11.7414433,31.3936165 11.9884536,31.7336185 11.9884536,32.3765156 L11.9884536,49.5983923 C12.6948454,49.7269718 13.4482474,49.7960077 14.2404124,49.7960077 C15.1319588,49.7960077 15.9628866,49.7002203 16.7385567,49.5328082 L16.7385567,44.6593027 L21.0618557,44.663186 C21.3179381,44.663186 21.5678351,44.6480844 21.8202062,44.636866 C23.1204124,44.5850891 24.3616495,44.3999865 25.5142268,44.1005431 C29.9843299,42.9334044 33.1105155,40.053743 33.1105155,36.6140275 L33.1105155,36.6140275 Z M14.0123711,51.9878986 C13.3113402,51.9878986 12.6428866,51.9486344 11.9884536,51.8860706 L11.9884536,53.50108 C11.9884536,54.2177593 11.8424742,54.4084711 11.2523711,54.5573298 L9.19670103,55.0492108 C8.60618557,55.2010899 8.36494845,55.3913702 8.36494845,55.7305092 C8.36494845,56.183989 8.75134021,56.3734063 9.7356701,56.3734063 L18.9435052,56.3734063 C19.7760825,56.3734063 20.1682474,56.183989 20.1682474,55.7305092 C20.1682474,55.427614 19.971134,55.2394911 19.5307216,55.1273077 L17.6709278,54.6712391 C16.8878351,54.4451464 16.7385567,54.2958562 16.7385567,53.50108 L16.7385567,51.7989127 C15.8771134,51.9162738 14.9736082,51.9878986 14.0123711,51.9878986 L14.0123711,51.9878986 Z M31.3736082,5.69326406 L34.8696907,2.78253648 L34.3249485,7.37428906 L35.3542268,7.96152597 L35.585567,7.96454629 L35.4903093,7.73155001 L35.3521649,7.60297059 L35.2581443,7.33545634 L35.4276289,7.08174928 L37.6424742,3.75033398 L37.836701,3.71409012 L38.105567,3.76500412 L38.3142268,3.72185666 L38.2317526,3.53243931 L36.9571134,2.80324726 L36.7484536,2.82093772 L36.8453608,3.0470304 L37.0391753,3.25974737 L37.1092784,3.43492606 L36.9571134,3.67482593 L35.0049485,6.68824446 L34.9913402,6.68004644 L35.6070103,2.03522249 L35.2251546,1.81689635 L31.6437113,4.82427423 L31.6313402,4.81737064 L33.0969072,1.51745298 L33.196701,1.29179177 L33.403299,1.18737492 L33.6936082,1.25037021 L33.9406186,1.19470999 L33.8709278,1.04541978 L32.4218557,0.218282995 L32.225567,0.251506538 L32.3026804,0.459045815 L32.5261856,0.687727348 L32.5628866,0.855139488 L31.0305155,4.57617634 L30.9113402,4.8587922 L30.6305155,4.913158 L30.4527835,4.86138105 C30.2923711,4.81176147 30.2503093,4.836787 30.214433,4.90323408 L30.3414433,5.10473272 L31.3736082,5.69326406 Z M38.5562887,8.04566352 L38.7934021,7.88170317 L39.0564948,7.91967294 L40.116701,8.81066796 L38.9641237,10.3182402 L37.6973196,9.25681269 L37.628866,9.07300451 L37.7195876,8.62383947 L37.6705155,8.39688383 L37.4230928,8.4314018 L37.3224742,8.57594579 L36.9418557,9.19899509 L39.5896907,11.4215207 L39.8498969,11.4556072 L39.796701,11.246342 L39.5896907,10.9607058 L39.6164948,10.7311614 L42.1414433,7.43857877 L42.3525773,7.36307072 L42.6651546,7.5093406 L42.865567,7.51840157 L42.777732,7.26253714 L40.0903093,5.00592504 L39.4041237,5.53275551 L39.2189691,5.69326406 L39.2478351,5.90900135 L39.476701,5.94999144 L40.1327835,5.76834063 L40.3608247,5.80889925 L41.4795876,6.74778795 L41.5150515,6.98941372 L40.3872165,8.46074207 L39.323299,7.56845262 L39.2313402,7.30827344 L39.3360825,7.02997233 L39.2874227,6.8284737 L39.0606186,6.83753467 L38.3158763,7.80619512 L38.3571134,8.04221172 L38.5562887,8.04566352 Z M41.5327835,12.7111982 L41.3690722,12.680995 L41.076701,12.4807908 L40.8630928,12.460943 L40.897732,12.6771118 L41.8734021,13.784707 L42.062268,13.8131843 L42.062268,13.6000359 L41.9645361,13.4248572 L41.9810309,13.2656431 L42.1183505,13.2224956 L44.5789691,13.1103122 L44.5880412,13.1232565 L43.1971134,14.4677313 L42.977732,14.5091529 L42.6907216,14.3158522 L42.4907216,14.2757251 L42.5402062,14.5415135 L43.5872165,15.7276371 L43.8375258,15.7988304 L43.8152577,15.5861134 L43.651134,15.2719999 L43.708866,15.0489276 L46.6758763,12.1847992 L46.8923711,12.1446721 L47.1810309,12.3362468 L47.3802062,12.3780999 L47.3323711,12.1101541 L46.2853608,10.9253249 L46.0354639,10.8524057 L46.0573196,11.0659856 L46.2189691,11.3809621 L46.1620619,11.6040345 L44.6012371,13.1133326 L44.5880412,13.0999569 L44.988866,10.2284935 L45.0346392,10.0813606 L45.1921649,10.118036 L45.2779381,10.1814627 L45.5216495,10.2155492 L45.4849485,10.0179339 L44.3340206,8.71574355 L44.1501031,8.68165706 L44.1748454,8.92932347 L44.302268,9.20805606 L44.3571134,9.39143276 L43.9245361,12.6098017 L41.5327835,12.7111982 Z M46.9802062,16.2350512 L47.1298969,17.5057439 C47.1760825,17.9216854 47.0531959,18.2893017 46.8160825,18.463186 C46.4082474,18.7565887 45.9183505,18.4895059 45.6412371,18.0692497 C45.4354639,17.7572936 45.3513402,17.4578502 45.4672165,17.2546257 L45.6865979,16.8848519 L45.716701,16.5741902 L45.4482474,16.5254336 L45.3253608,16.6263987 L44.8057732,17.0910968 C44.8548454,17.5264547 45.0692784,17.9924472 45.3068041,18.352297 C45.734433,19.0025292 46.5727835,19.5375577 47.3517526,18.9762093 C47.8115464,18.6456997 47.942268,18.1693518 47.876701,17.5454395 L47.7463918,16.2397974 C47.7154639,15.94208 47.8115464,15.5321791 48.0614433,15.3544116 C48.5364948,15.0096634 49.1331959,15.2409338 49.44,15.7077893 C49.7278351,16.1418527 49.7397938,16.374849 49.6189691,16.6000787 L49.3315464,17.1683308 L49.2927835,17.4651853 L49.545567,17.4910737 L49.6705155,17.3922661 L50.3121649,16.7700797 C50.2762887,16.3161684 50.0395876,15.8264448 49.788866,15.4458842 C49.2189691,14.5859553 48.1546392,14.3257762 47.5134021,14.7887484 C47.0585567,15.1166691 46.9076289,15.6547179 46.9802062,16.2350512 L46.9802062,16.2350512 Z M48.6362887,23.2529854 L48.3694845,22.6933629 C48.0247423,21.9805668 48.2148454,21.5283815 48.7517526,21.2453341 C49.3839175,20.9118043 49.9129897,21.2966796 50.1876289,21.8627743 L50.4065979,22.3184114 L48.6362887,23.2529854 Z M51.3323711,18.8027565 L51.2964948,18.9779352 L50.0437113,20.9139617 C49.596701,20.457893 48.8956701,20.2844402 48.403299,20.543325 C47.5901031,20.9747996 47.4354639,21.7557686 47.942268,22.8089981 L48.7719588,24.5279928 L48.9913402,24.6712424 L49.0263918,24.4580939 L48.9538144,24.108168 L49.0663918,23.9109842 L52.6709278,22.0099071 L52.8886598,22.0297549 L53.1158763,22.2994266 L53.2993814,22.3960769 L53.3204124,22.1264053 L52.614433,20.6628435 L52.4597938,20.5890613 L52.3950515,20.8073874 L52.4540206,21.1266786 L52.3290722,21.3022888 L50.7913402,22.1151869 L50.5245361,21.5650568 L51.9793814,19.346846 L51.4812371,18.309581 L51.3274227,18.225875 C51.2560825,18.2625503 51.2482474,18.3121699 51.2861856,18.505902 L51.3323711,18.8027565 Z M54.7092784,27.0762817 C55.0263918,28.1282168 54.4973196,29.0942884 53.1369072,29.5408646 C51.7583505,29.992187 50.7785567,29.373021 50.5035052,28.4531172 C50.1876289,27.4003192 50.716701,26.4329531 52.0729897,25.9876714 C53.4556701,25.5359175 54.4354639,26.1542205 54.7092784,27.0762817 L54.7092784,27.0762817 Z M51.8230928,25.1385294 C50.4268041,25.5963239 49.5979381,26.9369155 50.0919588,28.5864428 C50.5496907,30.112137 52.0453608,30.8301107 53.3934021,30.3891436 C54.7859794,29.9326435 55.6136082,28.5903261 55.1191753,26.9399358 C54.6651546,25.415536 53.1657732,24.6984253 51.8230928,25.1385294 L51.8230928,25.1385294 Z M56.8762887,37.1771019 L56.7468041,37.0088268 L56.6239175,37.2211123 L56.5661856,37.5102003 L56.4647423,37.6689829 L56.1934021,37.6741606 L52.7138144,37.7069527 L52.7117526,37.6909881 L56.7138144,35.57892 L56.6701031,35.128892 L52.2692784,33.7568028 L52.2676289,33.7399753 L55.6952577,33.1246925 L55.9307216,33.0837024 L56.1265979,33.2002006 L56.2437113,33.4866997 L56.4272165,33.6661931 L56.5051546,33.5229436 L56.3294845,31.8035173 L56.1925773,31.6529327 L56.0750515,31.8414871 L56.0206186,32.1603468 L55.9121649,32.2897892 L52.1158763,33.0862913 L51.8268041,33.1432459 L51.6230928,32.9344122 L51.563299,32.7501726 C51.5092784,32.5818975 51.4635052,32.5629126 51.3934021,32.5698162 L51.3072165,32.7954774 L51.4325773,34.0148246 L55.7084536,35.3696548 L51.7859794,37.5127891 L51.9109278,38.7325678 L52.04,38.9349294 C52.1183505,38.924574 52.1496907,38.8805636 52.1719588,38.720055 L52.1921649,38.5276173 L52.3501031,38.2946211 L52.6453608,38.2946211 L56.5270103,38.3097227 L56.6630928,38.4508149 L56.7740206,38.7127199 L56.9278351,38.8689137 L57.0321649,38.6911462 L56.8762887,37.1771019 Z M56.6507216,40.9559563 L56.5501031,41.2968213 L56.3624742,41.411162 L52.3265979,41.2182929 L52.1463918,41.0862617 L52.0779381,40.7359043 L51.96,40.5589997 L51.8152577,40.7807776 L51.7476289,42.3953556 L51.8709278,42.6300777 L52.0008247,42.4626656 L52.102268,42.1226636 L52.2898969,42.0074599 L56.3241237,42.2007605 L56.5051546,42.3327917 L56.577732,42.6818547 L56.6907216,42.8609166 L56.8346392,42.6369813 L56.9076289,41.0245608 L56.782268,40.7876812 L56.6507216,40.9559563 Z M53.6837113,46.6846444 L53.603299,47.1916271 L51.6461856,46.8537825 L51.7459794,46.2346164 C51.8676289,45.4476068 52.2771134,45.1995089 52.8701031,45.3026313 C53.5686598,45.4225813 53.7814433,46.0607322 53.6837113,46.6846444 L53.6837113,46.6846444 Z M56.4602062,44.6511047 L56.3323711,44.9216393 L56.2028866,45.0415892 L54.0993814,45.8307562 C53.9962887,45.1874276 53.5282474,44.6148608 52.9830928,44.5216623 C52.0812371,44.3646056 51.5171134,44.9030859 51.3369072,46.0672043 L51.036701,47.9665554 L51.134433,48.2181051 L51.28,48.0683835 L51.4214433,47.7417572 L51.6230928,47.651579 L55.6024742,48.3358977 L55.7707216,48.4890712 L55.8012371,48.8450377 L55.8940206,49.0370439 L56.0639175,48.8333879 L56.3183505,47.2149267 L56.2358763,47.0591644 L56.0606186,47.1946474 L55.9270103,47.490639 L55.7298969,47.5562231 L54.025567,47.2628204 L54.1245361,46.6527153 L56.5451546,45.7604259 L56.7257732,44.6148608 L56.6507216,44.4491746 C56.5727835,44.4370933 56.5385567,44.4733372 56.4602062,44.6511047 L56.4602062,44.6511047 Z M52.5303093,51.9797006 L52.3331959,52.6402882 L50.388866,51.9965281 L50.5670103,51.4015247 C50.7913402,50.6550736 51.2272165,50.452712 51.8078351,50.6451497 C52.5191753,50.8803033 52.731134,51.3117779 52.5303093,51.9797006 L52.5303093,51.9797006 Z M54.7092784,52.9932344 L54.5369072,53.2646319 L54.3789691,53.3155459 L52.7410309,52.7736138 L52.9476289,52.0996505 C53.2078351,51.2297978 52.9620619,50.1977105 52.0296907,49.8887747 C51.1620619,49.6014127 50.5245361,50.0471259 50.2519588,50.9506337 L49.6317526,53.0096304 L49.6948454,53.271967 L49.8606186,53.144682 L50.0416495,52.8417868 L50.2527835,52.7835378 L54.1026804,54.0542304 L54.2457732,54.2307035 L54.2284536,54.5871015 L54.2927835,54.7916205 L54.4903093,54.6134215 L54.9604124,53.0523464 L54.8997938,52.8823454 L54.7092784,52.9932344 Z M49.0296907,61.337953 L47.5925773,59.511521 L47.5995876,59.4977138 L49.8173196,59.910635 L49.0296907,61.337953 Z M52.1991753,59.214235 L51.9814433,59.4282464 L51.8098969,59.4657847 L46.9191753,58.6593587 L46.6490722,59.1516712 L49.6696907,63.0724808 L49.8173196,63.3628632 L49.7373196,63.6838803 C49.7002062,63.8422315 49.7204124,63.8987547 49.7686598,63.9298208 L49.9426804,63.8538813 L50.6449485,62.5767165 L50.6160825,62.3709031 L50.4185567,62.4485686 L50.2078351,62.6461839 L50.0870103,62.6595596 L49.9773196,62.543493 L49.3818557,61.7858236 L50.363299,60.0012447 L51.3402062,60.1721086 L51.4552577,60.2036063 L51.4973196,60.3239877 L51.457732,60.5574154 C51.4272165,60.7494216 51.4239175,60.8020615 51.4729897,60.8314018 L51.651134,60.7498531 L52.4404124,59.3134742 L52.4140206,59.1188792 L52.1991753,59.214235 Z M45.3096907,62.0567896 L45.4540206,61.7159247 L45.414433,61.4859488 L45.2478351,61.549807 L44.3641237,62.7480119 L44.3670103,62.9287998 L44.5789691,62.8951448 L44.8309278,62.7005497 L44.996701,62.7100422 L47.7369072,64.9278215 L47.7253608,64.9407658 L42.7624742,64.9196235 L42.1294845,65.7722173 L42.1101031,65.956457 L42.3323711,65.9374721 L42.6119588,65.7066332 L42.8049485,65.7057702 L46.0527835,68.333019 L46.097732,68.527614 L45.9558763,68.8693419 L45.9946392,69.096729 L46.1620619,69.0333023 L47.043299,67.8350973 L47.043299,67.6543095 L46.825567,67.6901219 L46.574433,67.8816966 L46.4090722,67.8726356 L43.6086598,65.6069626 L43.617732,65.5922924 L48.7026804,65.5922924 L48.9954639,65.1966302 L45.3550515,62.2509532 L45.3096907,62.0567896 Z M39.1158763,72.8962943 L38.4420619,70.6366618 L38.4527835,70.6267379 L40.3583505,71.8853493 L39.1158763,72.8962943 Z M42.5360825,72.2922298 L42.3661856,72.2624581 L38.1274227,69.5834324 L37.6973196,69.9320638 L39.083299,74.7550868 C39.1463918,74.9492504 39.1406186,75.048921 39.1158763,75.0795557 L38.9241237,75.3496588 L38.8651546,75.5878327 L39.0519588,75.5861068 L40.1616495,74.6817361 L40.2152577,74.479806 L39.9983505,74.4737654 L39.7356701,74.5742989 L39.6189691,74.5354662 L39.5571134,74.3879019 L39.2779381,73.4464244 L40.8313402,72.1852241 L41.6738144,72.7297451 L41.7690722,72.8039587 L41.7628866,72.9303808 L41.6428866,73.1336053 C41.5496907,73.2967027 41.5228866,73.3450278 41.5591753,73.3920586 L41.756701,73.3860179 L43.0008247,72.3686008 L43.0494845,72.1783205 L42.8123711,72.1813409 L42.5360825,72.2922298 Z M37.4441237,75.4743549 L37.2189691,75.4445832 C37.1237113,75.5032637 37.1030928,75.5766144 37.0878351,75.745321 L37.0197938,76.3921014 L36.934433,76.5823817 L35.4065979,77.5195445 L35.5727835,71.7080132 L32.7513402,73.4395208 L32.9917526,74.2286878 L33.0593814,74.4017091 L33.3039175,74.4103386 L33.3971134,74.2563022 L33.4494845,73.6177198 L33.5760825,73.4002566 L34.8597938,72.6136784 L34.6960825,78.4265041 L37.7278351,76.5651227 L37.5282474,75.7517931 L37.4441237,75.4743549 Z M29.9628866,77.5626919 L29.5117526,77.7551296 L28.7661856,75.8346362 L29.3195876,75.5973252 C30.0263918,75.2974503 30.4395876,75.5321725 30.6659794,76.1138003 C30.9369072,76.8011393 30.5249485,77.3232235 29.9628866,77.5626919 L29.9628866,77.5626919 Z M33.0746392,78.9783601 L32.7847423,79.0033856 L32.6214433,78.9524716 L30.8787629,77.4867524 C31.3484536,77.060887 31.5736082,76.3437762 31.3649485,75.8100422 C31.0169072,74.9224989 30.2857732,74.6994266 29.2445361,75.1442769 L27.5393814,75.871743 L27.3847423,76.0896377 L27.5826804,76.1427091 L27.9257732,76.0952469 L28.102268,76.2311614 L29.6251546,80.1403211 L29.5859794,80.3668453 L29.3113402,80.5830141 L29.203299,80.7638019 L29.4589691,80.8091067 L30.9113402,80.1899407 L30.9938144,80.0346099 L30.7938144,79.9504723 L30.4816495,79.9858532 L30.3220619,79.8404463 L29.6742268,78.1710711 L30.2206186,77.9376434 L32.2156701,79.6333385 L33.2441237,79.1966862 L33.3352577,79.0426498 C33.3080412,78.9671417 33.2626804,78.954629 33.0746392,78.9783601 L33.0746392,78.9783601 Z M26.9480412,80.3431142 L26.7752577,80.5118208 L26.5154639,81.1646418 L26.342268,81.332054 L24.9521649,81.6901779 L24.7472165,81.5728168 L24.316701,79.7412071 L25.6371134,79.3994793 L25.8919588,79.4827539 L26.0416495,79.7368924 L26.2235052,79.8223244 L26.356701,79.624709 L26.0725773,78.419169 L25.8701031,78.309143 L25.7435052,78.470946 L25.7237113,78.7690949 L25.5373196,78.9654158 L24.2140206,79.3032604 L23.7727835,77.4293663 L25.3463918,77.0237802 L25.5307216,77.0768516 L25.8148454,77.4285033 L26.0164948,77.5229963 L26.1393814,77.2969036 L26.0919588,77.1251767 L25.8486598,76.4313656 L22.5542268,77.2805076 L22.3748454,77.4751026 L22.563299,77.5562198 L22.9039175,77.560966 L23.0606186,77.7188857 L24.0268041,81.8209147 L23.9542268,82.0383779 L23.6556701,82.2092418 L23.5249485,82.3736336 L23.7707216,82.4573397 L27.1208247,81.5943905 L27.137732,80.7042584 L27.1257732,80.4527087 L26.9480412,80.3431142 Z M19.9962887,77.6766012 L19.8474227,77.7969826 L19.9604124,77.9281509 L20.1925773,77.9523135 L20.3868041,78.0830503 L20.3649485,78.2133556 L19.3740206,82.0064487 L19.3587629,82.0068802 L17.7686598,78.511936 L17.7162887,78.3678235 C17.7113402,78.309143 17.7290722,78.2461477 17.9340206,78.1667564 L18.0952577,78.105487 L18.1859794,77.9536079 L18.0197938,77.8660186 L16.3975258,78.020055 L16.257732,78.1533807 L16.4606186,78.2858434 L16.6515464,78.3194984 C16.8119588,78.3492701 16.8663918,78.4032044 16.96,78.6042716 L19.1286598,83.1653895 L19.5925773,83.1213791 L20.985567,78.0787355 L21.0894845,77.9333286 L21.3661856,77.8172619 L21.5410309,77.6515757 L21.3843299,77.5458644 L19.9962887,77.6766012 Z M14.8280412,78.2957673 L15.1620619,78.2172389 L15.3303093,78.0959945 L15.1138144,77.9462729 L13.5719588,77.8932015 L13.3468041,78.0269586 L13.5072165,78.1598528 L13.8375258,78.2608178 L13.948866,78.461022 L13.8173196,82.681275 L13.6919588,82.8711238 L13.3587629,82.9500837 L13.1884536,83.072191 L13.4078351,83.2197553 L14.9459794,83.2745526 L15.1719588,83.1407954 L15.0127835,83.0079013 L14.6820619,82.9052103 L14.5727835,82.7063005 L14.7030928,78.4856161 L14.8280412,78.2957673 Z M10.5752577,77.6054079 L10.4243299,77.6917028 L10.5538144,77.8729222 L10.8371134,78.0140144 L10.9063918,78.1702082 L10.3307216,81.7445437 L10.3162887,81.7402289 L7.98927835,77.1484763 L6.97402062,76.9676885 L6.80865979,77.0384503 L6.93319588,77.2343398 L7.25773196,77.3814726 L7.35051546,77.5588087 L6.66556701,81.7958891 L6.5257732,81.9300777 L6.16907216,81.960281 L5.99628866,82.1035305 L6.12659794,82.2260693 L7.55257732,82.4780505 L7.70597938,82.3904611 L7.5756701,82.2070844 L7.29443299,82.0677181 L7.22391753,81.9102299 L7.81030928,78.2556401 L7.82597938,78.257366 L10.225567,82.9479263 L10.6981443,83.0320638 L11.4618557,78.2841175 L11.603299,78.1490659 L11.9608247,78.1201571 L12.134433,77.9760446 L12.0020619,77.8543688 L10.5752577,77.6054079 Z M4.35175258,76.1103485 L4.18762887,76.1685975 L4.28618557,76.3718221 L4.5414433,76.5612394 L4.58391753,76.729083 L3.51298969,79.8831623 C3.29896907,80.5178614 2.6428866,80.7499947 1.91463918,80.4807546 C1.16618557,80.202022 0.797525773,79.5893281 1.01402062,78.9533345 L2.08247423,75.7992553 L2.21690722,75.6987217 L2.52824742,75.7177066 L2.72701031,75.626234 L2.63505155,75.4743549 L1.09649485,74.9000623 L0.924123711,74.9393264 L1.00948454,75.1529064 L1.30515464,75.3591512 L1.36701031,75.5485686 L0.329072165,78.6042716 C-0.0437113402,79.7053947 0.761649485,80.5273538 1.69608247,80.8768483 C2.62556701,81.2207335 3.74721649,81.1120019 4.12,80.0117417 L5.15670103,76.9569016 L5.31793814,76.849033 L5.67546392,76.8870027 L5.86886598,76.7769767 L5.76123711,76.6324327 L4.35175258,76.1103485 Z" id="Fill-1" fill="#FEFEFE" mask="url(#mask-2)"></path>
                </g>
                <g id="Group-6" transform="translate(0.000000, 8.411166)">
                    <mask id="mask-4" fill="white">
                        <use xlink:href="#path-3"></use>
                    </mask>
                    <g id="Clip-5"></g>
                    <path d="M13.2254845,43.6880534 C13.8795052,43.7506172 14.5483711,43.7907444 15.2494021,43.7907444 C16.2106392,43.7907444 17.113732,43.7182566 17.9755876,43.6008956 C21.0341443,43.1789134 23.4724948,42.0277392 25.0988866,40.1995814 C26.2481649,38.8939393 26.6498144,37.8985274 26.7508454,35.9029574 C25.5986804,36.2019693 24.3574433,36.3870719 23.0568247,36.4388489 C22.9611546,37.4657584 22.6716701,38.2437071 22.1046598,38.9534828 C21.2168247,40.1391749 19.7669278,40.9481898 17.9755876,41.3352225 C17.1999175,41.5022032 16.3689897,41.5979905 15.4774433,41.5979905 C14.6852784,41.5979905 13.9318763,41.5289546 13.2254845,41.4003752 C11.0122887,41.0055759 9.28981443,40.0256971 8.5331134,38.6484302 C8.12362887,37.8182731 7.94136082,36.9863901 7.94136082,35.6250878 L7.94136082,19.3403738 C7.94136082,18.5097853 7.98630928,18.4329828 8.80569072,18.2064586 L10.3941443,17.792243 C10.9842474,17.6399325 11.2547629,17.4129768 11.2547629,17.0350051 C11.2547629,16.5435555 10.9842474,16.3925394 9.93806186,16.3925394 L0.952494845,16.3925394 C0.315793814,16.3925394 -8.24742268e-05,16.5815253 -8.24742268e-05,16.9991927 C-8.24742268e-05,17.3379003 0.22342268,17.5281806 0.725690722,17.6787652 L2.63125773,18.2064586 C3.3574433,18.4329828 3.49517526,18.6219686 3.49517526,19.3783436 L3.49517526,35.4753661 C3.49517526,40.0403672 7.26383505,43.1223902 13.2254845,43.6880534 L13.2254845,43.6880534 Z M20.4254845,17.7529788 L22.241567,18.2823981 C22.9219794,18.4705211 23.1038351,18.6992026 23.1038351,19.4154504 L23.1038351,34.2227954 C24.5372371,34.1766276 25.7821856,33.8586308 26.7801237,33.3054804 L26.7801237,19.2648658 C26.7801237,18.5460291 26.9162062,18.3954445 27.5520825,18.2064586 L29.3211546,17.792243 C29.8667216,17.6787652 30.1384742,17.4129768 30.1384742,17.0350051 C30.1384742,16.6199266 29.776,16.3925394 29.0506392,16.3925394 L20.924866,16.3925394 C20.0630103,16.3925394 19.699299,16.5815253 19.699299,17.0350051 C19.699299,17.3741441 19.9722887,17.6399325 20.4254845,17.7529788 L20.4254845,17.7529788 Z M40.9945567,52.8448072 L39.7875464,50.8712424 L39.7970309,50.8591611 L41.8861031,51.6733536 L40.9945567,52.8448072 Z M44.238268,51.4899769 L44.0135258,51.6457393 L43.8436289,51.6491911 L39.2250722,49.9522015 L38.9178557,50.3564932 L41.4407423,54.5754517 C41.5512577,54.7437268 41.5706392,54.8369253 41.5553814,54.8718748 L41.4477526,55.1557851 L41.4531134,55.3887813 L41.6275464,55.3529689 L42.4275464,54.3066431 L42.4184742,54.1073018 L42.2197113,54.1422512 L42.0007423,54.2863638 L41.8823918,54.273851 L41.7887835,54.1452716 L41.2885773,53.3259013 L42.4003299,51.862771 L43.3256907,52.2105395 L43.4312577,52.2623165 L43.4625979,52.380972 L43.4023918,52.5906686 C43.3549691,52.7611011 43.3417732,52.8107207 43.3896082,52.8491219 L43.5665155,52.8059744 L44.4613608,51.6289118 L44.4572371,51.4429462 L44.238268,51.4899769 Z M37.5054845,49.2847103 C37.3508454,49.2454461 37.198268,49.3338984 37.1603299,49.4879349 L37.3677526,49.8443329 L37.4221856,49.8572771 L38.7681649,50.0574813 L38.9343505,49.9802474 L38.8411546,49.8158555 L37.6217732,49.3231116 L37.5054845,49.2847103 Z M31.0283711,6.46387767 L30.9479588,6.28050097 L30.7129072,6.06174335 L30.696,5.83780804 L32.4547629,2.03522249 L32.6316701,1.90923191 L32.9397113,1.96575508 L33.124866,1.91829288 L33.0023918,1.69953526 L30.1830103,0.273511742 L29.6444536,0.95783044 L29.5025979,1.16019202 L29.5644536,1.35694444 L29.7780619,1.33364481 L30.3479588,0.988033662 L30.5636289,0.965165508 L31.7351753,1.55714864 L31.8077526,1.77720069 L31.0263093,3.47591614 L29.9096082,2.9128418 L29.7838351,2.68933797 L29.8291959,2.39852409 L29.7529072,2.21946214 L29.5458969,2.28763512 L29.0300206,3.40946906 L29.1046598,3.62175455 L29.2881649,3.57084055 L29.4766186,3.35165146 L29.7240412,3.31885939 L30.8399175,3.88020783 L30.0357938,5.62034485 L28.7046598,4.95026481 L28.6131134,4.79363954 L28.6242474,4.34102269 L28.5405361,4.14081848 L28.3211546,4.23876322 L28.2535258,4.40444946 L28.0122887,5.0982606 L30.7896082,6.49969006 L31.0283711,6.46387767 Z M32.7186804,7.6163463 L32.8085773,7.85193143 L33.9722887,8.66871282 L34.2147629,8.66655545 L34.1590928,8.47411778 L33.9549691,8.22299957 L33.9698144,7.99906426 L36.2205361,4.49333322 L36.4118763,4.39366259 L36.7108454,4.49419617 L36.9009485,4.47736866 L36.8098144,4.24092059 L34.2749691,2.46022496 L33.6489897,3.05824874 L33.4828041,3.23774217 L33.5157938,3.44139818 L33.7318763,3.45045914 L34.3380619,3.19071144 L34.5599175,3.19977241 L35.5731134,3.91256843 L35.616,4.14081848 L33.3986804,7.59865584 L33.2073402,7.69875795 L32.9087835,7.59736142 L32.7186804,7.6163463 Z M38.7743505,8.7235101 L36.8077526,9.8475014 L36.7995052,9.83542011 L37.7190928,7.71127071 L38.7743505,8.7235101 Z M37.8386804,5.49133395 L37.8316701,5.66608116 L35.8939381,10.3695857 L36.2564124,10.7190801 L40.456,8.3787619 C40.6230103,8.27563947 40.713732,8.26096934 40.7463093,8.28038569 L41.0077526,8.41155397 L41.2324948,8.42320378 L41.2094021,8.23853266 L40.2667216,7.33329897 L40.078268,7.32510095 L40.0976495,7.53609203 L40.2176495,7.7759919 L40.1957938,7.89723626 L40.070433,7.9882774 L39.252701,8.45297553 L37.9335258,7.18875498 L38.3302268,6.24857185 L38.3863093,6.13940878 L38.5042474,6.11912948 L38.6968247,6.1933431 C38.8572371,6.25676987 38.907134,6.27144001 38.9442474,6.2257037 L38.9157938,6.03801225 L37.856,5.01930075 L37.6778557,5.01153421 L37.7079588,5.24323606 L37.8386804,5.49133395 Z M39.8143505,14.1622473 L39.4757938,13.7169655 C39.0452784,13.1474191 39.1623918,12.6883301 39.6320825,12.2961197 C40.1891959,11.8348734 40.7500206,12.0570828 41.0894021,12.5105626 L41.3677526,12.8734327 L39.8143505,14.1622473 Z M41.7425979,9.4263822 L41.7314639,9.59810909 L40.8151753,11.6769537 C40.3244536,11.3675864 39.6320825,11.3788047 39.1986804,11.738223 C38.4828041,12.332795 38.4502268,13.0857182 39.0865155,13.9249363 L40.1273402,15.2983199 L40.3590928,15.372965 L40.3619794,15.1706034 L40.2403299,14.8698656 L40.3207423,14.660169 L43.4828041,12.0372349 L43.6931134,12.0022855 L43.947134,12.1942917 L44.1364124,12.2374391 L44.1174433,11.985458 L43.2341443,10.8170248 L43.0757938,10.788116 L43.0428041,11.0025589 L43.1483711,11.28086 L43.052701,11.4720032 L41.7050722,12.5942686 L41.3722887,12.1537331 L42.4378557,9.76724713 L41.8122887,8.94054181 L41.6502268,8.8982573 C41.5879588,8.95003425 41.5879588,8.99879088 41.6514639,9.16534007 L41.7425979,9.4263822 Z M45.8811546,15.6706825 C46.3368247,16.5508906 45.9714639,17.546734 44.7219794,18.2608244 C43.4543505,18.9891535 42.4139381,18.6547607 42.0118763,17.8871674 C41.5512577,17.0056648 41.9170309,16.0115474 43.1694021,15.2940051 C44.4349691,14.5686964 45.4774433,14.9030892 45.8811546,15.6706825 L45.8811546,15.6706825 Z M41.6341443,18.1016103 C42.3038351,19.3753233 43.8535258,19.6808073 45.0951753,18.9714631 C46.3714639,18.2375248 46.9776495,16.8348009 46.2551753,15.4562396 C45.5867216,14.1799377 44.0333196,13.8766111 42.7962062,14.5846609 C41.5174433,15.3185992 40.9124948,16.7234805 41.6341443,18.1016103 L41.6341443,18.1016103 Z M43.9133196,22.0979279 L43.652701,21.290639 L43.6873402,21.1038105 L44.0357938,20.7167778 L44.1141443,20.4436544 L43.8881649,20.3448467 L43.652701,20.4591874 L43.0399175,20.8125651 L44.1970309,24.3549715 L44.8873402,24.2423566 L45.1421856,24.1841076 L45.2646598,23.9580149 L45.0436289,23.7914657 L44.5405361,23.709917 L44.3990928,23.5852208 L44.1364124,22.7796578 L48.0502268,21.375208 L48.2609485,21.4187869 L48.4390928,21.6858697 L48.6019794,21.7941698 L48.6675464,21.5490923 L48.2131134,20.1619015 L48.0172371,20.0108853 L47.9508454,20.2007342 L47.9702268,20.5256345 L47.8254845,20.6969299 L43.9133196,22.0979279 Z M44.7397113,25.3767033 L44.5953814,25.0880468 L44.4436289,24.9603304 L44.3529072,25.195484 L44.6465155,26.631 L44.8242474,26.8053157 L44.9091959,26.6253908 L44.9281649,26.299196 L45.0910515,26.1490429 L49.0349691,25.2679717 L49.2432165,25.3357133 L49.3887835,25.6260956 L49.5364124,25.7507918 L49.6296082,25.518227 L49.3388866,24.0818481 L49.1640412,23.9058065 L49.0733196,24.0878887 L49.052701,24.4127891 L48.8918763,24.5650996 L44.9458969,25.4453078 L44.7397113,25.3767033 Z M48.8172371,26.7971177 L48.6856907,26.9546059 L48.8172371,27.1358252 L49.3949691,27.4598627 L49.5273402,27.6419449 L49.6489897,28.9173838 L49.5058969,29.0964458 L45.5458969,29.5041893 L45.3508454,29.4118537 L45.2357938,29.1063697 L45.0984742,28.9639831 L44.9817732,29.1861925 L45.1190928,30.6480284 L45.278268,30.842192 L45.3788866,30.6726224 L45.4390928,30.3520368 L45.6151753,30.2195741 L49.6296082,29.8066529 L49.8258969,29.8972626 L49.9397113,30.2023151 L50.0757938,30.3464277 L50.1945567,30.1246497 L49.8906392,26.9425246 L49.052701,26.8182599 L48.8172371,26.7971177 Z M49.1520825,33.940611 L48.9929072,34.0674645 L49.0881649,34.2732779 L49.587134,34.7164023 L49.6774433,34.9239416 L49.5364124,36.1963601 L49.3656907,36.3391782 L45.4118763,35.8693024 L45.2395052,35.7351138 L45.1883711,35.4115079 L45.0861031,35.2410754 L44.9281649,35.435239 L44.7665155,36.8927601 L44.878268,37.1158325 L45.0176495,36.9747403 L45.1351753,36.6722766 L45.3343505,36.5833928 L49.3442474,37.0618982 L49.5149691,37.1947923 L49.5673402,37.5188297 L49.6729072,37.6896937 L49.8291959,37.4963931 L50.1784742,34.3198771 L49.3801237,34.0148246 L49.1520825,33.940611 Z M48.5702268,38.6687095 L48.3986804,38.7683802 L48.4634227,38.9858434 L48.8955876,39.5001611 L48.9590928,39.7184872 L48.6312577,41.037505 L48.4390928,41.1535717 L46.6931134,40.6785182 L47.004866,39.4242215 L47.1908454,39.2512002 L47.4716701,39.2425707 L47.6254845,39.1303873 L47.5223918,38.9310461 L46.3714639,38.6169326 L46.1867216,38.7368825 L46.2691959,38.9133556 L46.5129072,39.0648032 L46.5900206,39.3107437 L46.2790928,40.5650403 L44.4918763,40.0774741 L44.8650722,38.5850035 L44.9920825,38.4581499 L45.4184742,38.3787586 L45.5891959,38.2557883 L45.459299,38.0504064 L45.2881649,38.0115737 L44.5933196,37.8985274 L43.812701,41.0215405 L43.8935258,41.2605774 L44.0498144,41.1397645 L44.2065155,40.8580116 L44.4176495,40.800194 L48.321567,41.8659362 L48.4712577,42.022993 L48.4811546,42.3487563 L48.5590928,42.5364477 L48.7425979,42.3664468 L49.5335258,39.1938141 L48.7896082,38.7739893 L48.5702268,38.6687095 Z M46.8597113,46.1453012 L46.6085773,46.7316752 L46.401567,46.8158127 L42.6757938,45.0748128 L42.9578557,44.4120678 C43.3067216,43.5978752 44.2494021,43.0805372 45.553732,43.6897793 C46.6931134,44.2204931 47.2539381,45.215042 46.8597113,46.1453012 L46.8597113,46.1453012 Z M45.8774433,42.9549781 C44.7256907,42.4182237 43.2180619,42.7038599 42.579299,44.2019397 L41.8576495,45.8898683 L41.8984742,46.1392606 L42.0741443,46.0495139 L42.2729072,45.7983956 L42.4885773,45.7733701 L46.1718763,47.4958167 L46.299299,47.6787619 L46.2551753,48.0019364 L46.3058969,48.1965314 L46.5100206,48.0636372 L47.2395052,46.3619015 C47.8036289,45.0355486 47.2411546,43.5935605 45.8774433,42.9549781 L45.8774433,42.9549781 Z M39.9995052,56.4795491 L39.7929072,56.4148279 L36.9500206,53.2715355 L37.5421856,52.6851616 L37.7232165,52.6441715 L38.2019794,52.8158984 L38.4716701,52.7757712 L38.4642474,52.516455 L38.2634227,52.3421393 L37.7054845,51.9059184 L35.1038351,54.4805273 L35.4898144,55.089338 L35.6461031,55.3059382 L35.8939381,55.3288064 L35.9463093,55.0509367 L35.8073402,54.5370505 L35.8568247,54.3523794 L36.4502268,53.7672998 L39.2935258,56.9092978 L39.3450722,57.1271925 L39.1825979,57.4102398 L39.1603299,57.6091496 L39.3978557,57.5694539 L40.4164124,56.5610978 L40.4679588,56.3147258 L40.2778557,56.3293959 L39.9995052,56.4795491 Z M37.0745567,59.1227624 L36.8774433,59.0343101 L34.467134,55.6489605 L34.4411546,55.4254567 L34.6312577,55.1652775 L34.6807423,54.9680936 L34.4370309,54.9801749 L33.3149691,55.8573627 L33.2345567,56.0959682 L33.4254845,56.1037347 L33.7195052,55.9880995 L33.9149691,56.0765518 L36.3240412,59.4653532 L36.3529072,59.6879941 L36.1599175,59.9481733 L36.113732,60.1436313 L36.3529072,60.1332759 L37.4790928,59.2560881 L37.5607423,59.0183456 L37.3665155,59.0088531 L37.0745567,59.1227624 Z M33.2588866,58.9566447 L32.1223918,58.9704519 C31.7491959,58.9756296 31.4250722,58.8090804 31.2762062,58.5458809 C31.0263093,58.1014621 31.2762062,57.6337436 31.6584742,57.3964326 C31.9430103,57.2225483 32.2131134,57.1681825 32.3891959,57.3101377 L32.7145567,57.5720428 L32.9863093,57.6363325 L33.0386804,57.3718385 L32.9533196,57.2333352 L32.5549691,56.6530019 C32.161567,56.6581796 31.7425979,56.8234343 31.4135258,57.0253644 C30.8250722,57.3908234 30.3244536,58.1851681 30.8036289,59.0356046 C31.0877526,59.5399984 31.5063093,59.7246695 32.0646598,59.7268269 L33.2345567,59.7371822 C33.5005361,59.7384767 33.8613608,59.877843 34.0135258,60.1501034 C34.3116701,60.6730506 34.0873402,61.252521 33.6605361,61.5148575 C33.267134,61.7599351 33.0642474,61.7456965 32.8642474,61.600721 L32.3665155,61.2460489 L32.1001237,61.1748556 L32.0708454,61.4285626 L32.1545567,61.567066 L32.6939381,62.2859026 C33.0980619,62.2992784 33.5397113,62.109861 33.8873402,61.8988699 C34.6687835,61.4156184 34.9310515,60.3593686 34.5343505,59.6552021 C34.2543505,59.1598692 33.7780619,58.9488782 33.2588866,58.9566447 L33.2588866,58.9566447 Z M28.7124948,61.3426992 L28.3038351,61.5239185 L27.5463093,59.606014 L28.0456907,59.3885508 C28.6873402,59.1102497 29.0753814,59.3540328 29.3079588,59.9347976 C29.5813608,60.6182534 29.2213608,61.124373 28.7124948,61.3426992 L28.7124948,61.3426992 Z M31.6320825,62.8243829 L31.3706392,62.8425049 L31.2151753,62.7868446 L29.5557938,61.2948055 C29.9743505,60.887062 30.1520825,60.1854843 29.9405361,59.6508873 C29.5896082,58.7659329 28.9054845,58.5290534 27.9619794,58.9402487 L26.4143505,59.6111917 L26.2799175,59.8226142 L26.467134,59.8812948 L26.7788866,59.842462 L26.947134,59.9792395 L28.4947629,63.8784753 L28.4679588,64.1028421 L28.2238351,64.3064981 L28.132701,64.4846971 L28.3673402,64.5360426 L29.6852784,63.9634758 L29.7557938,63.8103024 L29.5644536,63.723576 L29.281567,63.7486015 L29.1318763,63.603626 L28.4708454,61.9368397 L28.9644536,61.7232598 L30.8675464,63.4495896 L31.7986804,63.0452979 L31.8790928,62.8955762 C31.8502268,62.8187738 31.8036289,62.8075554 31.6320825,62.8243829 L31.6320825,62.8243829 Z M26.7578557,63.9401762 L26.5900206,63.8292872 L26.4353814,63.9923846 L26.2131134,64.6365762 L26.0625979,64.8013995 L24.7995052,65.1310461 L24.6073402,65.0102332 L24.1702268,63.179918 L25.3718763,62.8658045 L25.6065155,62.9516679 L25.750433,63.2083953 L25.9166186,63.2942588 L26.0324948,63.1022526 L25.7446598,61.8967126 L25.5562062,61.7836662 L25.4452784,61.9446062 L25.433732,62.2388719 L25.2654845,62.4300152 L24.0667216,62.7445601 L23.619299,60.8689401 L25.0481649,60.4952831 L25.2188866,60.5509433 L25.4885773,60.9060469 L25.6724948,61.0044231 L25.7821856,60.7843711 L25.7339381,60.6109183 L25.4922887,59.9175386 L22.5017732,60.6980762 L22.3401237,60.887925 L22.5162062,60.9737884 L22.8279588,60.9832809 L22.9751753,61.1446524 L23.9566186,65.2423665 L23.8955876,65.4589668 L23.6250722,65.6220642 L23.507134,65.7834357 L23.7343505,65.8714565 L26.7776495,65.0779747 L26.772701,64.1908629 L26.7578557,63.9401762 Z M20.8147629,60.9483314 L20.6803299,61.0665554 L20.7838351,61.1990181 L20.9962062,61.2240437 L21.1751753,61.3573693 L21.1549691,61.4868117 L20.2828041,65.268255 L20.2630103,65.2708438 L18.7929072,61.7629554 L18.7454845,61.6166856 C18.7397113,61.5575735 18.7574433,61.4958727 18.9417732,61.4186387 L19.0894021,61.3586637 L19.1673402,61.2093735 L19.0201237,61.1179009 L17.5438351,61.2572672 L17.4180619,61.3884355 L17.601567,61.5200352 L17.7776495,61.5584365 C17.9252784,61.5903656 17.9735258,61.6455943 18.0605361,61.8475245 L20.067134,66.4241754 L20.4844536,66.3866371 L21.7190928,61.3586637 L21.8155876,61.2149827 L22.0621856,61.1002105 L22.2205361,60.9366816 L22.073732,60.8292444 L20.8147629,60.9483314 Z M15.6106392,61.1200583 L15.4056907,61.2555413 L15.5524948,61.3875725 L15.8510515,61.4876746 L15.9516701,61.6870159 L15.8184742,65.9072689 L15.7013608,66.0979806 L15.3990928,66.1778034 L15.2444536,66.2999107 L15.4395052,66.4474751 L16.8465155,66.4979576 L17.0465155,66.3620431 L16.9001237,66.2321692 L16.6036289,66.1294783 L16.5063093,65.9322944 L16.6366186,61.71161 L16.7529072,61.5200352 L17.0539381,61.439781 L17.2114639,61.319831 L17.0155876,61.1692464 L15.6106392,61.1200583 Z M13.5269278,60.9198541 L13.3879588,61.0100323 L13.5030103,61.1903887 L13.7578557,61.3271661 L13.8184742,61.4807711 L13.2341443,65.0533807 L13.2205361,65.0503603 L11.1776495,60.5004608 L10.2539381,60.3347745 L10.1030103,60.4068308 L10.2085773,60.6005629 L10.5021856,60.7446754 L10.587134,60.9198541 L9.89270103,65.1539142 L9.76115464,65.2911232 L9.43661856,65.3239152 L9.27620619,65.4688907 L9.39414433,65.5905665 L10.6918763,65.8218369 L10.8275464,65.7325217 L10.7149691,65.5538912 L10.4609485,65.4166823 L10.3999175,65.259194 L10.9929072,61.6076246 L11.0094021,61.609782 L13.1166186,66.2567633 L13.5479588,66.3344287 L14.3240412,61.5864823 L14.4564124,61.4509993 L14.7797113,61.4186387 L14.9409485,61.2723688 L14.8230103,61.1532818 L13.5269278,60.9198541 Z M9.69723711,60.4512727 L9.88280412,60.3390893 L9.78672165,60.1971342 L8.50837113,59.706979 L8.35909278,59.7686799 L8.44156701,59.9680211 L8.66672165,60.1509664 L8.69929897,60.3166526 L7.59826804,63.4577876 C7.37393814,64.0903294 6.76156701,64.3341125 6.10548454,64.0795425 C5.42465979,63.8193633 5.1116701,63.2204766 5.33393814,62.585346 L6.43620619,59.4450739 L6.56445361,59.3419515 L6.84816495,59.3561902 L7.03331959,59.2599713 L6.95785567,59.1115441 L5.56074227,58.5747897 L5.40156701,58.6153483 L5.47290722,58.8267709 L5.73393814,59.0256806 L5.78589691,59.2103518 L4.71661856,62.254405 C4.3331134,63.3516449 5.04404124,64.1498729 5.88940206,64.4752047 C6.73105155,64.7996736 7.76651546,64.6693683 8.15084536,63.5729913 L9.21723711,60.531527 L9.37105155,60.4215009 L9.69723711,60.4512727 Z" id="Fill-4" fill="#FEFEFE" mask="url(#mask-4)"></path>
                </g>
            </g>
        </g>
    </g>
</svg>